{
  "3": {
    "ID": "3",
    "Name": "Fitness Center She",
    "Address": "Narodnog Fronta 2",
    "YearOfOpening": 2010,
    "OwnerUserID": "2",
    "MonthlyPrice": 3000,
    "YearlyPrice": 35000,
    "TrainingPrice": 6000,
    "GroupPrice": 500,
    "PersonalTrainingPrice": 2500,
    "IsDeleted": false
  },
  "1": {
    "ID": "1",
    "Name": "Fitness Centar Flex",
    "Address": "Sutjeska 2",
    "YearOfOpening": 2020,
    "OwnerUserID": "3",
    "MonthlyPrice": 1000,
    "YearlyPrice": 3000,
    "TrainingPrice": 500,
    "GroupPrice": 400,
    "PersonalTrainingPrice": 2000,
    "IsDeleted": false
  },
  "2": {
    "ID": "2",
    "Name": "Bestfit",
    "Address": "Bulevar Oslobodjenja 127",
    "YearOfOpening": 2021,
    "OwnerUserID": "3",
    "MonthlyPrice": 3000,
    "YearlyPrice": 30000,
    "TrainingPrice": 5000,
    "GroupPrice": 4000,
    "PersonalTrainingPrice": 4000,
    "IsDeleted": false
  }
}