{
  "1": {
    "ID": "1",
    "Username": "sara",
    "Password": "sara",
    "Name": "Sara",
    "Lastname": "Jovic",
    "Gender": 1,
    "Email": "sara@mail.com",
    "DateOfBirth": "1996-06-08T00:00:00",
    "Role": 2,
    "VisitorRegisteredGroupTrainingsID": [
      "2"
    ],
    "CoachGroupTrainingsID": {},
    "CoachFitnessCenterID": "3",
    "OwnerFitnessCenterID": [],
    "IsDeleted": false,
    "IsLogg": true
  },
  "2": {
    "ID": "2",
    "Username": "trener1",
    "Password": "trener1",
    "Name": "Trener",
    "Lastname": "Trener",
    "Gender": 2,
    "Email": "trener@mail.com",
    "DateOfBirth": "1992-05-09T00:00:00",
    "Role": 1,
    "VisitorRegisteredGroupTrainingsID": [],
    "CoachGroupTrainingsID": {},
    "CoachFitnessCenterID": "",
    "OwnerFitnessCenterID": [
      "11",
      "12"
    ],
    "IsDeleted": false,
    "IsLogg": true
  },
  "3": {
    "ID": "3",
    "Username": "Vlasnik",
    "Password": "vlasnik",
    "Name": "Vlasnik",
    "Lastname": "Vlasnik",
    "Gender": 2,
    "Email": "vlasnik@mail.com",
    "DateOfBirth": "1991-04-07T00:00:00",
    "Role": 2,
    "VisitorRegisteredGroupTrainingsID": [],
    "CoachGroupTrainingsID": {},
    "CoachFitnessCenterID": "",
    "OwnerFitnessCenterID": [],
    "IsDeleted": false,
    "IsLogg": false
  }
}